^C:\USERS\UZZI\DOCUMENTS\YODA\OPENCVTEST\BUILD\CMAKEFILES\3.23.1\COMPILERIDCUDA\CMAKECUDACOMPILERID.CU
C:\USERS\UZZI\DOCUMENTS\YODA\OPENCVTEST\BUILD\CMAKEFILES\3.23.1\COMPILERIDCUDA\COMPILERIDCUDA.VCXPROJ
C:\PROGRAM FILES (X86)\WINDOWS KITS\10\INCLUDE\10.0.19041.0\UCRT\CORECRT.H
C:\PROGRAM FILES (X86)\WINDOWS KITS\10\INCLUDE\10.0.19041.0\UCRT\CORECRT_MALLOC.H
C:\PROGRAM FILES (X86)\WINDOWS KITS\10\INCLUDE\10.0.19041.0\UCRT\CORECRT_MATH.H
C:\PROGRAM FILES (X86)\WINDOWS KITS\10\INCLUDE\10.0.19041.0\UCRT\CORECRT_MEMCPY_S.H
C:\PROGRAM FILES (X86)\WINDOWS KITS\10\INCLUDE\10.0.19041.0\UCRT\CORECRT_MEMORY.H
C:\PROGRAM FILES (X86)\WINDOWS KITS\10\INCLUDE\10.0.19041.0\UCRT\CORECRT_SEARCH.H
C:\PROGRAM FILES (X86)\WINDOWS KITS\10\INCLUDE\10.0.19041.0\UCRT\CORECRT_WSTDLIB.H
C:\PROGRAM FILES (X86)\WINDOWS KITS\10\INCLUDE\10.0.19041.0\UCRT\CORECRT_WSTRING.H
C:\PROGRAM FILES (X86)\WINDOWS KITS\10\INCLUDE\10.0.19041.0\UCRT\CORECRT_WTIME.H
C:\PROGRAM FILES (X86)\WINDOWS KITS\10\INCLUDE\10.0.19041.0\UCRT\CRTDBG.H
C:\PROGRAM FILES (X86)\WINDOWS KITS\10\INCLUDE\10.0.19041.0\UCRT\ERRNO.H
C:\PROGRAM FILES (X86)\WINDOWS KITS\10\INCLUDE\10.0.19041.0\UCRT\MATH.H
C:\PROGRAM FILES (X86)\WINDOWS KITS\10\INCLUDE\10.0.19041.0\UCRT\STDDEF.H
C:\PROGRAM FILES (X86)\WINDOWS KITS\10\INCLUDE\10.0.19041.0\UCRT\STDLIB.H
C:\PROGRAM FILES (X86)\WINDOWS KITS\10\INCLUDE\10.0.19041.0\UCRT\STRING.H
C:\PROGRAM FILES (X86)\WINDOWS KITS\10\INCLUDE\10.0.19041.0\UCRT\TIME.H
C:\PROGRAM FILES\MICROSOFT VISUAL STUDIO\2022\COMMUNITY\VC\TOOLS\MSVC\14.32.31326\INCLUDE\CMATH
C:\PROGRAM FILES\MICROSOFT VISUAL STUDIO\2022\COMMUNITY\VC\TOOLS\MSVC\14.32.31326\INCLUDE\CONCURRENCYSAL.H
C:\PROGRAM FILES\MICROSOFT VISUAL STUDIO\2022\COMMUNITY\VC\TOOLS\MSVC\14.32.31326\INCLUDE\CRTDEFS.H
C:\PROGRAM FILES\MICROSOFT VISUAL STUDIO\2022\COMMUNITY\VC\TOOLS\MSVC\14.32.31326\INCLUDE\CSTDLIB
C:\PROGRAM FILES\MICROSOFT VISUAL STUDIO\2022\COMMUNITY\VC\TOOLS\MSVC\14.32.31326\INCLUDE\LIMITS.H
C:\PROGRAM FILES\MICROSOFT VISUAL STUDIO\2022\COMMUNITY\VC\TOOLS\MSVC\14.32.31326\INCLUDE\SAL.H
C:\PROGRAM FILES\MICROSOFT VISUAL STUDIO\2022\COMMUNITY\VC\TOOLS\MSVC\14.32.31326\INCLUDE\USE_ANSI.H
C:\PROGRAM FILES\MICROSOFT VISUAL STUDIO\2022\COMMUNITY\VC\TOOLS\MSVC\14.32.31326\INCLUDE\VADEFS.H
C:\PROGRAM FILES\MICROSOFT VISUAL STUDIO\2022\COMMUNITY\VC\TOOLS\MSVC\14.32.31326\INCLUDE\VCRUNTIME.H
C:\PROGRAM FILES\MICROSOFT VISUAL STUDIO\2022\COMMUNITY\VC\TOOLS\MSVC\14.32.31326\INCLUDE\VCRUNTIME_NEW.H
C:\PROGRAM FILES\MICROSOFT VISUAL STUDIO\2022\COMMUNITY\VC\TOOLS\MSVC\14.32.31326\INCLUDE\VCRUNTIME_NEW_DEBUG.H
C:\PROGRAM FILES\MICROSOFT VISUAL STUDIO\2022\COMMUNITY\VC\TOOLS\MSVC\14.32.31326\INCLUDE\VCRUNTIME_STRING.H
C:\PROGRAM FILES\MICROSOFT VISUAL STUDIO\2022\COMMUNITY\VC\TOOLS\MSVC\14.32.31326\INCLUDE\XKEYCHECK.H
C:\PROGRAM FILES\MICROSOFT VISUAL STUDIO\2022\COMMUNITY\VC\TOOLS\MSVC\14.32.31326\INCLUDE\XTR1COMMON
C:\PROGRAM FILES\MICROSOFT VISUAL STUDIO\2022\COMMUNITY\VC\TOOLS\MSVC\14.32.31326\INCLUDE\YVALS.H
C:\PROGRAM FILES\MICROSOFT VISUAL STUDIO\2022\COMMUNITY\VC\TOOLS\MSVC\14.32.31326\INCLUDE\YVALS_CORE.H
C:\PROGRAM FILES\NVIDIA GPU COMPUTING TOOLKIT\CUDA\V11.7\INCLUDE\BUILTIN_TYPES.H
C:\PROGRAM FILES\NVIDIA GPU COMPUTING TOOLKIT\CUDA\V11.7\INCLUDE\CHANNEL_DESCRIPTOR.H
C:\PROGRAM FILES\NVIDIA GPU COMPUTING TOOLKIT\CUDA\V11.7\INCLUDE\CRT\COMMON_FUNCTIONS.H
C:\PROGRAM FILES\NVIDIA GPU COMPUTING TOOLKIT\CUDA\V11.7\INCLUDE\CRT\CUDACC_EXT.H
C:\PROGRAM FILES\NVIDIA GPU COMPUTING TOOLKIT\CUDA\V11.7\INCLUDE\CRT\DEVICE_DOUBLE_FUNCTIONS.H
C:\PROGRAM FILES\NVIDIA GPU COMPUTING TOOLKIT\CUDA\V11.7\INCLUDE\CRT\DEVICE_DOUBLE_FUNCTIONS.HPP
C:\PROGRAM FILES\NVIDIA GPU COMPUTING TOOLKIT\CUDA\V11.7\INCLUDE\CRT\DEVICE_FUNCTIONS.H
C:\PROGRAM FILES\NVIDIA GPU COMPUTING TOOLKIT\CUDA\V11.7\INCLUDE\CRT\DEVICE_FUNCTIONS.HPP
C:\PROGRAM FILES\NVIDIA GPU COMPUTING TOOLKIT\CUDA\V11.7\INCLUDE\CRT\HOST_CONFIG.H
C:\PROGRAM FILES\NVIDIA GPU COMPUTING TOOLKIT\CUDA\V11.7\INCLUDE\CRT\HOST_DEFINES.H
C:\PROGRAM FILES\NVIDIA GPU COMPUTING TOOLKIT\CUDA\V11.7\INCLUDE\CRT\MATH_FUNCTIONS.H
C:\PROGRAM FILES\NVIDIA GPU COMPUTING TOOLKIT\CUDA\V11.7\INCLUDE\CRT\MATH_FUNCTIONS.HPP
C:\PROGRAM FILES\NVIDIA GPU COMPUTING TOOLKIT\CUDA\V11.7\INCLUDE\CRT\SM_70_RT.H
C:\PROGRAM FILES\NVIDIA GPU COMPUTING TOOLKIT\CUDA\V11.7\INCLUDE\CRT\SM_80_RT.H
C:\PROGRAM FILES\NVIDIA GPU COMPUTING TOOLKIT\CUDA\V11.7\INCLUDE\CUDA_DEVICE_RUNTIME_API.H
C:\PROGRAM FILES\NVIDIA GPU COMPUTING TOOLKIT\CUDA\V11.7\INCLUDE\CUDA_RUNTIME.H
C:\PROGRAM FILES\NVIDIA GPU COMPUTING TOOLKIT\CUDA\V11.7\INCLUDE\CUDA_RUNTIME_API.H
C:\PROGRAM FILES\NVIDIA GPU COMPUTING TOOLKIT\CUDA\V11.7\INCLUDE\CUDA_SURFACE_TYPES.H
C:\PROGRAM FILES\NVIDIA GPU COMPUTING TOOLKIT\CUDA\V11.7\INCLUDE\CUDA_TEXTURE_TYPES.H
C:\PROGRAM FILES\NVIDIA GPU COMPUTING TOOLKIT\CUDA\V11.7\INCLUDE\DEVICE_ATOMIC_FUNCTIONS.H
C:\PROGRAM FILES\NVIDIA GPU COMPUTING TOOLKIT\CUDA\V11.7\INCLUDE\DEVICE_LAUNCH_PARAMETERS.H
C:\PROGRAM FILES\NVIDIA GPU COMPUTING TOOLKIT\CUDA\V11.7\INCLUDE\DEVICE_TYPES.H
C:\PROGRAM FILES\NVIDIA GPU COMPUTING TOOLKIT\CUDA\V11.7\INCLUDE\DRIVER_FUNCTIONS.H
C:\PROGRAM FILES\NVIDIA GPU COMPUTING TOOLKIT\CUDA\V11.7\INCLUDE\DRIVER_TYPES.H
C:\PROGRAM FILES\NVIDIA GPU COMPUTING TOOLKIT\CUDA\V11.7\INCLUDE\LIBRARY_TYPES.H
C:\PROGRAM FILES\NVIDIA GPU COMPUTING TOOLKIT\CUDA\V11.7\INCLUDE\SM_20_ATOMIC_FUNCTIONS.H
C:\PROGRAM FILES\NVIDIA GPU COMPUTING TOOLKIT\CUDA\V11.7\INCLUDE\SM_20_INTRINSICS.H
C:\PROGRAM FILES\NVIDIA GPU COMPUTING TOOLKIT\CUDA\V11.7\INCLUDE\SM_30_INTRINSICS.H
C:\PROGRAM FILES\NVIDIA GPU COMPUTING TOOLKIT\CUDA\V11.7\INCLUDE\SM_32_ATOMIC_FUNCTIONS.H
C:\PROGRAM FILES\NVIDIA GPU COMPUTING TOOLKIT\CUDA\V11.7\INCLUDE\SM_32_INTRINSICS.H
C:\PROGRAM FILES\NVIDIA GPU COMPUTING TOOLKIT\CUDA\V11.7\INCLUDE\SM_35_ATOMIC_FUNCTIONS.H
C:\PROGRAM FILES\NVIDIA GPU COMPUTING TOOLKIT\CUDA\V11.7\INCLUDE\SM_35_INTRINSICS.H
C:\PROGRAM FILES\NVIDIA GPU COMPUTING TOOLKIT\CUDA\V11.7\INCLUDE\SM_60_ATOMIC_FUNCTIONS.H
C:\PROGRAM FILES\NVIDIA GPU COMPUTING TOOLKIT\CUDA\V11.7\INCLUDE\SM_61_INTRINSICS.H
C:\PROGRAM FILES\NVIDIA GPU COMPUTING TOOLKIT\CUDA\V11.7\INCLUDE\SURFACE_FUNCTIONS.H
C:\PROGRAM FILES\NVIDIA GPU COMPUTING TOOLKIT\CUDA\V11.7\INCLUDE\SURFACE_INDIRECT_FUNCTIONS.H
C:\PROGRAM FILES\NVIDIA GPU COMPUTING TOOLKIT\CUDA\V11.7\INCLUDE\SURFACE_TYPES.H
C:\PROGRAM FILES\NVIDIA GPU COMPUTING TOOLKIT\CUDA\V11.7\INCLUDE\TEXTURE_FETCH_FUNCTIONS.H
C:\PROGRAM FILES\NVIDIA GPU COMPUTING TOOLKIT\CUDA\V11.7\INCLUDE\TEXTURE_INDIRECT_FUNCTIONS.H
C:\PROGRAM FILES\NVIDIA GPU COMPUTING TOOLKIT\CUDA\V11.7\INCLUDE\TEXTURE_TYPES.H
C:\PROGRAM FILES\NVIDIA GPU COMPUTING TOOLKIT\CUDA\V11.7\INCLUDE\VECTOR_FUNCTIONS.H
C:\PROGRAM FILES\NVIDIA GPU COMPUTING TOOLKIT\CUDA\V11.7\INCLUDE\VECTOR_FUNCTIONS.HPP
C:\PROGRAM FILES\NVIDIA GPU COMPUTING TOOLKIT\CUDA\V11.7\INCLUDE\VECTOR_TYPES.H
