^C:\USERS\UZZI\DOCUMENTS\YODA\OPENCVTEST\BUILD\CMAKEFILES\3.23.1\COMPILERIDCUDA\X64\DEBUG\CMAKECUDACOMPILERID.CU.OBJ
C:\PROGRAM FILES\NVIDIA GPU COMPUTING TOOLKIT\CUDA\V11.7\LIB\X64\CUDART_STATIC.LIB
C:\USERS\UZZI\DOCUMENTS\YODA\OPENCVTEST\BUILD\CMAKEFILES\3.23.1\COMPILERIDCUDA\X64\DEBUG\CMAKECUDACOMPILERID.CU.OBJ
C:\WINDOWS\GLOBALIZATION\SORTING\SORTDEFAULT.NLS
C:\PROGRAM FILES\MICROSOFT VISUAL STUDIO\2022\COMMUNITY\VC\TOOLS\MSVC\14.32.31326\LIB\X64\MSVCPRTD.LIB
C:\PROGRAM FILES\MICROSOFT VISUAL STUDIO\2022\COMMUNITY\VC\TOOLS\MSVC\14.32.31326\LIB\X64\MSVCRTD.LIB
C:\PROGRAM FILES\MICROSOFT VISUAL STUDIO\2022\COMMUNITY\VC\TOOLS\MSVC\14.32.31326\LIB\X64\OLDNAMES.LIB
C:\PROGRAM FILES (X86)\WINDOWS KITS\10\LIB\10.0.19041.0\UM\X64\UUID.LIB
C:\PROGRAM FILES\MICROSOFT VISUAL STUDIO\2022\COMMUNITY\VC\TOOLS\MSVC\14.32.31326\LIB\X64\LIBCMT.LIB
C:\PROGRAM FILES (X86)\WINDOWS KITS\10\LIB\10.0.19041.0\UM\X64\SHELL32.LIB
C:\PROGRAM FILES (X86)\WINDOWS KITS\10\LIB\10.0.19041.0\UM\X64\ADVAPI32.LIB
C:\PROGRAM FILES (X86)\WINDOWS KITS\10\LIB\10.0.19041.0\UM\X64\KERNEL32.LIB
C:\PROGRAM FILES\MICROSOFT VISUAL STUDIO\2022\COMMUNITY\VC\TOOLS\MSVC\14.32.31326\LIB\X64\VCRUNTIMED.LIB
C:\PROGRAM FILES (X86)\WINDOWS KITS\10\LIB\10.0.19041.0\UCRT\X64\UCRTD.LIB
C:\WINDOWS\SYSTEM32\TZRES.DLL
C:\PROGRAM FILES\MICROSOFT VISUAL STUDIO\2022\COMMUNITY\VC\TOOLS\MSVC\14.32.31326\BIN\HOSTX64\X64\1033\LINKUI.DLL
C:\PROGRAM FILES\MICROSOFT VISUAL STUDIO\2022\COMMUNITY\VC\TOOLS\MSVC\14.32.31326\BIN\HOSTX64\X64\CVTRES.EXE
