^C:\USERS\UZZI\DOCUMENTS\YODA\OPENCVTEST\BUILD\TESTO.DIR\DEBUG\MAIN.OBJ
C:\USERS\UZZI\DOCUMENTS\YODA\OPENCVTEST\BUILD\DEBUG\TESTO.EXE
C:\USERS\UZZI\DOCUMENTS\YODA\OPENCVTEST\BUILD\TESTO.DIR\DEBUG\TESTO.ILK
C:\USERS\UZZI\DOCUMENTS\YODA\OPENCVTEST\BUILD\DEBUG\TESTO.PDB
